0.00000000000000000000000000000000000e+00
1.74745235065637936749862255560050714e-02
3.49480435413228195736997685782333025e-02
5.24195528753538143439823910948691589e-02
6.98880364886693166807911111718553813e-02
8.73524667659259968441625100472331578e-02
1.04811796798162939585920052805313650e-01
1.22264949049543439021218032341178839e-01
1.39710792565043384756872890463229514e-01
1.57148091602529623514080630124358901e-01
1.74575382607756868243266372863731039e-01
1.91990670887288956396181222229346098e-01
2.09390672645694336808639928021158518e-01
2.26768909083013831233731558263632678e-01
2.44110899589258898483952953824389847e-01
2.61382022620435661879126558195967077e-01
2.78496860052938236003171751726476099e-01
2.95241943572620565979946165256718835e-01
3.11082395403435015811671105205332610e-01
3.24686919278323793247961373358940759e-01
3.32817382927340062833532917285982039e-01
3.28060519627411985517205764225462246e-01
2.95794444192966181859051546134951310e-01
2.15899833493575467780238364279214854e-01
8.06950020141663069521629050218332730e-02
-8.06950020141662034517247782077764943e-02
-2.15899833493575393346288745650568257e-01
-2.95794444192966141601979236067474090e-01
-3.28060519627411968142466453443075470e-01
-3.32817382927340056949411543568115575e-01
-3.24686919278323792361845396197579284e-01
-3.11082395403435016942887668474433764e-01
-2.95241943572620567873660912372408553e-01
-2.78496860052938238147343485952192286e-01
-2.61382022620435664065454605278467229e-01
-2.44110899589258900625657967871045374e-01
-2.26768909083013833291997820712013756e-01
-2.09390672645694338763276319626532486e-01
-1.91990670887288958234032970086826959e-01
-1.74575382607756869953727087607326931e-01
-1.57148091602529625087447324133141372e-01
-1.39710792565043386183842701228367587e-01
-1.22264949049543440292843520176111737e-01
-1.04811796798162940693745192653896041e-01
-8.73524667659259977804229869049711071e-02
-6.98880364886693174386271855750733516e-02
-5.24195528753538149176388755405435849e-02
-3.49480435413228199586987983444710851e-02
-1.74745235065637938682637588017872024e-02
0.00000000000000000000000000000000000e+00
